{
  "numFailedTestSuites": 0,
  "numFailedTests": 0,
  "numPassedTestSuites": 1,
  "numPassedTests": 6,
  "numPendingTestSuites": 0,
  "numPendingTests": 0,
  "numRuntimeErrorTestSuites": 0,
  "numTodoTests": 0,
  "numTotalTestSuites": 1,
  "numTotalTests": 6,
  "openHandles": [],
  "snapshot": {
    "added": 0,
    "didUpdate": false,
    "failure": false,
    "filesAdded": 0,
    "filesRemoved": 0,
    "filesRemovedList": [],
    "filesUnmatched": 0,
    "filesUpdated": 0,
    "matched": 0,
    "total": 0,
    "unchecked": 0,
    "uncheckedKeysByFile": [],
    "unmatched": 0,
    "updated": 0
  },
  "startTime": 1606451819650,
  "success": false,
  "testResults": [
    {
      "leaks": false,
      "numFailingTests": 0,
      "numPassingTests": 6,
      "numPendingTests": 0,
      "numTodoTests": 0,
      "openHandles": [],
      "perfStats": {
        "end": 1606451839996,
        "runtime": 20017,
        "slow": true,
        "start": 1606451819979
      },
      "skipped": false,
      "snapshot": {
        "added": 0,
        "fileDeleted": false,
        "matched": 0,
        "unchecked": 0,
        "unmatched": 0,
        "updated": 0,
        "uncheckedKeys": []
      },
      "testFilePath": "/Users/abrahammadrigal/Documents/Repositories/pptr-jest/test/amazonProductDetail.test.js",
      "testResults": [
        {
          "ancestorTitles": [
            "Validates title and header of the homepage"
          ],
          "duration": 3523,
          "failureDetails": [],
          "failureMessages": [],
          "fullName": "Validates title and header of the homepage Validates page title",
          "location": null,
          "numPassingAsserts": 0,
          "status": "passed",
          "title": "Validates page title"
        },
        {
          "ancestorTitles": [
            "Validates title and header of the homepage"
          ],
          "duration": 1747,
          "failureDetails": [],
          "failureMessages": [],
          "fullName": "Validates title and header of the homepage Validates page header",
          "location": null,
          "numPassingAsserts": 0,
          "status": "passed",
          "title": "Validates page header"
        },
        {
          "ancestorTitles": [
            "Validates title and header of the homepage"
          ],
          "duration": 1944,
          "failureDetails": [],
          "failureMessages": [],
          "fullName": "Validates title and header of the homepage Validates Add to Cart is visible",
          "location": null,
          "numPassingAsserts": 0,
          "status": "passed",
          "title": "Validates Add to Cart is visible"
        },
        {
          "ancestorTitles": [
            "Validates title and header of the homepage"
          ],
          "duration": 1996,
          "failureDetails": [],
          "failureMessages": [],
          "fullName": "Validates title and header of the homepage Validates share icons",
          "location": null,
          "numPassingAsserts": 0,
          "status": "passed",
          "title": "Validates share icons"
        },
        {
          "ancestorTitles": [
            "Validates CTAs of the page"
          ],
          "duration": 5162,
          "failureDetails": [],
          "failureMessages": [],
          "fullName": "Validates CTAs of the page Add to Cart CTA",
          "location": null,
          "numPassingAsserts": 0,
          "status": "passed",
          "title": "Add to Cart CTA"
        },
        {
          "ancestorTitles": [
            "Validates CTAs of the page"
          ],
          "duration": 4928,
          "failureDetails": [],
          "failureMessages": [],
          "fullName": "Validates CTAs of the page Buy Now CTA",
          "location": null,
          "numPassingAsserts": 0,
          "status": "passed",
          "title": "Buy Now CTA"
        }
      ],
      "failureMessage": null
    }
  ],
  "wasInterrupted": false
}